<svg width="150" height="100" viewBox="0 0 150 100" xmlns="http://www.w3.org/2000/svg">
  <title>
    logo
  </title>
  <g fill="none" fill-rule="evenodd">
    <path d="M148.812 50.24s2.566-4.002-1.33-6.76l-32.055-22.685C86.777 1.572 80.77 0 74.743 0c-5.987 0-11.65 1.614-39.8 20.775l-32.67 22.24S-1.676 45.7.835 49.735l7.23 11.62L2.272 65.3s-3.947 2.687-1.436 6.722l14.81 23.8s2.51 4.036 7.3 4.036h103.546s4.792 0 7.358-4l14.962-23.333s2.566-4.002-1.33-6.76l-5.934-4.198 7.264-11.328z" fill="#FEFEFE"/>
    <path d="M28.16 87.606s.513.085 1.013.085c1.442 0 2.184-.846 2.184-1.976s-.685-1.934-2.256-1.934c-.442 0-.94.028-.94.028v3.798zm-1.557 4.503v-9.53s1.4-.056 2.64-.056c2.528 0 3.713 1.27 3.713 3.007 0 1.92-1.427 3.417-3.898 3.417-.428 0-.9-.042-.9-.042v3.204h-1.555zm10.35.14c-1.97 0-3.255-1.114-3.255-3.53 0-2.116 1.242-3.768 3.527-3.768 1.97 0 3.255 1.115 3.255 3.53 0 2.117-1.242 3.77-3.527 3.77zm.143-6.027c-1.1 0-1.813.805-1.813 2.385 0 1.525.657 2.358 1.784 2.358 1.057 0 1.828-.734 1.828-2.372 0-1.524-.67-2.37-1.8-2.37zm5.025 5.887V81.804h1.53V92.11h-1.53zm3.756 0v-7.017h1.527v7.017h-1.527zm.77-8.26c-.542 0-.984-.408-.984-.945 0-.522.442-.946.985-.946.528 0 .97.423.97.945s-.442.946-.97.946zm6.74 8.217c-.43.1-.986.17-1.442.17-1.514 0-1.985-.593-1.985-2.188v-3.785H48.63v-1.17h1.327v-2.232l1.527-.41v2.64h1.84v1.172h-1.84v3.473c0 .946.2 1.228.9 1.228.313 0 .627-.042.9-.113l.098 1.214zm1.57.043v-7.017h1.527v7.017h-1.528zm.77-8.26c-.542 0-.985-.408-.985-.945 0-.522.444-.946.986-.946.528 0 .972.423.972.945s-.444.946-.972.946zm8.324 7.963c-.785.268-1.657.438-2.485.438-2.213 0-3.426-1.128-3.426-3.6 0-2.102 1.212-3.698 3.268-3.698 2.027 0 2.87 1.327 2.87 2.936 0 .48-.043.932-.043.932h-4.54c0 1.497.643 2.23 2.056 2.23.7 0 1.4-.126 2.114-.366l.186 1.13zm-1.3-4.023c.03-1.102-.528-1.708-1.427-1.708-.857 0-1.485.62-1.614 1.708h3.04z" fill="#004583"/>
    <path d="M68.646 92.11v-1.172l3.797-5.97c.244-.37.458-.693.715-1.032-.415.014-.97.014-1.957.014h-2.41v-1.37H75v1.215L71 89.965c-.158.267-.314.493-.514.76.27-.027 1.042-.027 2.27-.027h2.298v1.412h-6.41zm10.537.14c-1.97 0-3.255-1.114-3.255-3.53 0-2.116 1.24-3.768 3.526-3.768 1.97 0 3.255 1.115 3.255 3.53 0 2.117-1.243 3.77-3.527 3.77zm.143-6.027c-1.1 0-1.813.805-1.813 2.385 0 1.525.656 2.358 1.784 2.358 1.056 0 1.827-.734 1.827-2.372 0-1.524-.67-2.37-1.798-2.37zm8.65.226c-1.413-.27-2.097.704-2.097 2.808v2.852h-1.53v-7.017h1.457c0 .395-.043 1.017-.143 1.553h.03c.312-.946 1.027-1.82 2.354-1.68l-.07 1.483zm7.025 5.886c0 2.145-1.198 3.33-3.725 3.33-.8 0-1.542-.097-2.127-.24l.157-1.368c.614.197 1.385.338 2.085.338 1.413 0 2.112-.592 2.112-1.92v-.536c0-.41.015-.762.086-1.13l-.028-.014c-.372.89-1.214 1.44-2.213 1.44-1.685 0-2.627-1.13-2.627-3.29 0-2.412 1.385-3.966 3.797-3.966.914 0 1.743.07 2.484.198v7.158zm-1.512-6.03c-.37-.083-.728-.126-1.128-.126-1.213 0-2.04.735-2.04 2.626 0 1.412.44 2.188 1.398 2.188 1.156 0 1.77-1.313 1.77-2.54v-2.147zm3.74 9.248v-10.46h1.442c0 .366-.028.93-.085 1.312h.03c.398-.89 1.212-1.454 2.297-1.454 1.684 0 2.612 1.186 2.612 3.304 0 2.47-1.327 3.953-3.697 3.953-.4 0-.7-.016-1.07-.086v3.43h-1.53zm1.528-4.673c.328.1.685.143 1.113.143 1.213 0 2.04-.734 2.04-2.626 0-1.412-.44-2.203-1.398-2.203-1.142 0-1.756 1.328-1.756 2.528v2.16zm9.11 1.37c-1.97 0-3.256-1.114-3.256-3.53 0-2.116 1.242-3.768 3.526-3.768 1.97 0 3.255 1.115 3.255 3.53 0 2.117-1.24 3.77-3.525 3.77zm.14-6.027c-1.098 0-1.812.805-1.812 2.385 0 1.525.657 2.358 1.785 2.358 1.055 0 1.826-.734 1.826-2.372 0-1.524-.67-2.37-1.8-2.37zm5.027 5.887V81.804h1.528V92.11h-1.527zm3.754 0v-7.017h1.528v7.017h-1.528zm.77-8.26c-.542 0-.984-.408-.984-.945 0-.522.442-.946.985-.946.528 0 .97.423.97.945s-.442.946-.97.946zm6.668 2.443c-.414-.113-.9-.197-1.356-.197-.815 0-1.23.325-1.23.833 0 1.368 3.17.704 3.17 3.104 0 1.23-1.027 2.217-2.997 2.217-.585 0-1.2-.084-1.657-.197l.1-1.285c.457.17 1.114.283 1.656.283.857 0 1.314-.324 1.314-.89 0-1.382-3.14-.69-3.14-3.104 0-1.158.94-2.104 2.87-2.104.456 0 .94.057 1.355.127l-.085 1.213z" fill="#B49759"/>
    <path d="M103.22 56.046s1.99.328 4.046.328c5.84 0 8.957-3.41 8.957-8.2 0-4.79-2.786-8.136-9.29-8.136-1.723 0-3.714.066-3.714.066v15.942zm-8.626 21.52V33.28s6.568-.26 12.87-.26c11.81 0 17.65 5.64 17.65 14.235 0 8.988-6.502 16.14-18.38 16.14-1.724 0-3.515-.132-3.515-.132v14.303h-8.626z" fill="#004583"/>
    <path d="M88.392 69.685v7.85H69.435l5.013-7.84c1.217-.008 2.638-.01 4.285-.01h9.66zm-19.29.157l.016-.002-4.92 7.695h-5.444v-6.542L70.83 51.535l6.592-10.31c.08-.11.152-.215.236-.324l-.03.003 4.81-7.525h5.69v6.87l-8.876 13.83-.042-.023-9.96 15.578c-.05.07-.096.14-.15.21zm3.212-28.82c-.792.007-1.685.01-2.71.01h-10.32V33.38H77.2l-4.886 7.643z" fill="#00B2DD"/>
    <path d="M35.282 56.046s1.99.328 4.048.328c5.84 0 8.956-3.41 8.956-8.2 0-4.79-2.786-8.136-9.288-8.136-1.725 0-3.716.066-3.716.066v15.942zm-8.625 21.52V33.28s6.568-.26 12.872-.26c11.808 0 17.647 5.64 17.647 14.235 0 8.988-6.502 16.14-18.378 16.14-1.726 0-3.518-.132-3.518-.132v14.303h-8.625z" fill="#004583"/>
    <path d="M82.73 19.45c-4.98-3.34-6.023-3.613-7.07-3.613-1.04 0-2.025.28-6.915 3.61l-6.37 4.34 3.516 5.496 9.77-6.7 9.83 6.737 3.547-5.547-6.308-4.323z" fill="#B49759"/>
  </g>
</svg>
